106
414
425
428
429
431
432
433
434
466
501
502
505
509
510
512
515
519
520
521
525
554
556
559
565
566
782
1218
1251
1260
1325
1402
1422
1430
1433
1437
1438
1439
1440
1446
1449
1450
1452
1460
1463
1498
1562
1563
2090
2416
2514
2515
2523
2524
2525
2827
2845
2853
2854
2870
3021
3841
3845
3846
3855
3858
4041
4187
4188
4189
4190
4191
4192
4195
4196
4198
4199
4200
4203
4205
4239
4240
4384
5351
5882
5951
5975
5982
6097
6137
6138
6140
6657
10422
10424
10427
10428
10431
10540
10541
11163
11256
11441
11448
11666
11787
11828
11831
11832
11840
11851
11909
13232
13441
13495
13496
13498
13652
13683
14035
14036
14090
14324
16184
16330
16340
16343
16416
16632
16679
16698
16711
16732
16733
16748
16751
16752
16790
16797
16798
16808
16810
16822
16846
16847
16848
16849
16851
16889
16890
16896
16897
16902
16920
16968
16970
16998
17033
17038
17042
17043
17044
17048
17051
17057
17068
17071
17073
17074
17167
17205
17640
17646
17648
17655
17656
17668
17722
17765
17776
17779
17795
17798
17803
17817
17819
17820
17843
17853
17879
17884
17952
17964
17965
17980
17981
17993
18022
18027
18028
18029
18040
18043
18051
18062
18064
18088
18091
18094
18099
18119
18136
18151
22962
22969
23082
23186
23327
23330
23331
23332
23349
23443
23455
23456
23549
23712
23713
23770
23771
23796
23861
24080
24081
24287
24525
24651
24684
24716
24724
24745
24773
24785
24797
24801
24804
24816
131261
132082
132578
132589
132590
132610
132646
132647
132677
132679
133011
133030
133068
133098
133244
133245
133268
133444
133484
133487
133549
133585
133646
133658
133720
133732
133787
133790
133878
133882
133927
133977
133981
133982
133999
134014
134022
134050
134070
134093
134143
134179
134191
134201
134218
134353
140262
140265
140271
140281
140291
140298
140317
140522
140524
140590
140650
140656
140665
140666
